<?xml version="1.0" encoding="UTF-8" standalone="no"?>
<!-- Created with Inkscape (http://www.inkscape.org/) -->

<svg
   width="300"
   height="300"
   viewBox="0 0 79.374998 79.375"
   version="1.1"
   id="svg5"
   inkscape:version="1.2.1 (9c6d41e, 2022-07-14)"
   sodipodi:docname="no-music.svg"
   xmlns:inkscape="http://www.inkscape.org/namespaces/inkscape"
   xmlns:sodipodi="http://sodipodi.sourceforge.net/DTD/sodipodi-0.dtd"
   xmlns="http://www.w3.org/2000/svg"
   xmlns:svg="http://www.w3.org/2000/svg">
  <sodipodi:namedview
     id="namedview7"
     pagecolor="#ffffff"
     bordercolor="#000000"
     borderopacity="0.25"
     inkscape:showpageshadow="2"
     inkscape:pageopacity="0.0"
     inkscape:pagecheckerboard="0"
     inkscape:deskcolor="#d1d1d1"
     inkscape:document-units="mm"
     showgrid="false"
     inkscape:zoom="0.914906"
     inkscape:cx="190.72998"
     inkscape:cy="167.23029"
     inkscape:window-width="1431"
     inkscape:window-height="566"
     inkscape:window-x="2400"
     inkscape:window-y="545"
     inkscape:window-maximized="0"
     inkscape:current-layer="layer1" />
  <defs
     id="defs2" />
  <g
     inkscape:label="Layer 1"
     inkscape:groupmode="layer"
     id="layer1">
    <ellipse
       style="fill:#000000;fill-opacity:1;stroke-width:2.91212;stroke-linejoin:round;stroke-miterlimit:20"
       id="path234"
       cx="-4.9836369"
       cy="69.697067"
       rx="14.199026"
       ry="8.4694281"
       transform="matrix(0.88543175,-0.46476943,0.508805,0.8608818,0,0)" />
    <path
       style="fill:none;fill-opacity:1;stroke:#000000;stroke-width:2.91026;stroke-linejoin:round;stroke-miterlimit:20;stroke-opacity:1"
       d="M 42.982769,58.115095 42.097174,9.7089906 c 0,0 15.62542,8.5360334 16.383498,17.1090544 0.885591,10.015057 -10.184339,10.849645 -10.184339,17.526349"
       id="path1234"
       sodipodi:nodetypes="ccsc" />
    <path
       style="fill:none;fill-opacity:1;stroke:#000000;stroke-width:6.88664;stroke-linejoin:round;stroke-miterlimit:20;stroke-dasharray:none;stroke-opacity:1"
       d="M 13.756565,9.7735027 59.408964,75.827276"
       id="path3592" />
  </g>
</svg>
