<?xml version="1.0" encoding="UTF-8" standalone="no"?>
<!-- Created with Inkscape (http://www.inkscape.org/) -->

<svg
   width="64"
   height="64"
   viewBox="0 0 16.933333 16.933333"
   version="1.1"
   id="svg5"
   inkscape:version="1.2.1 (9c6d41e, 2022-07-14)"
   sodipodi:docname="flower.svg"
   xmlns:inkscape="http://www.inkscape.org/namespaces/inkscape"
   xmlns:sodipodi="http://sodipodi.sourceforge.net/DTD/sodipodi-0.dtd"
   xmlns="http://www.w3.org/2000/svg"
   xmlns:svg="http://www.w3.org/2000/svg">
  <sodipodi:namedview
     id="namedview7"
     pagecolor="#ffffff"
     bordercolor="#000000"
     borderopacity="0.25"
     inkscape:showpageshadow="2"
     inkscape:pageopacity="0.0"
     inkscape:pagecheckerboard="0"
     inkscape:deskcolor="#d1d1d1"
     inkscape:document-units="mm"
     showgrid="false"
     inkscape:zoom="5.8284562"
     inkscape:cx="32.512897"
     inkscape:cy="38.775276"
     inkscape:window-width="1512"
     inkscape:window-height="840"
     inkscape:window-x="0"
     inkscape:window-y="38"
     inkscape:window-maximized="1"
     inkscape:current-layer="layer1" />
  <defs
     id="defs2" />
  <g
     inkscape:label="Layer 1"
     inkscape:groupmode="layer"
     id="layer1">
    <path
       style="fill:none;fill-opacity:1;stroke:#119600;stroke-width:0.352777;stroke-linecap:round;stroke-linejoin:round;stroke-dasharray:none;stroke-opacity:1"
       d="m 7.9441417,6.8092645 c 0,0 -1.1348772,1.6342232 -1.1348772,3.1776566 0,1.5434329 1.5434331,4.9480659 1.5434331,4.9480659"
       id="path12228" />
    <ellipse
       style="fill:#ffd723;fill-opacity:1;stroke:#000000;stroke-width:0.352777;stroke-linecap:round;stroke-linejoin:round;stroke-dasharray:none"
       id="path12072"
       cx="9.8932781"
       cy="-0.86536664"
       rx="0.68092644"
       ry="1.9973842"
       transform="rotate(27.578521)" />
    <ellipse
       style="fill:#ffd723;fill-opacity:1;stroke:#000000;stroke-width:0.352777;stroke-linecap:round;stroke-linejoin:round;stroke-dasharray:none"
       id="path12072-0"
       cx="9.3308859"
       cy="-7.1695366"
       rx="0.68092644"
       ry="1.9973842"
       transform="rotate(61.432617)" />
    <ellipse
       style="fill:#ffd723;fill-opacity:1;stroke:#000000;stroke-width:0.352777;stroke-linecap:round;stroke-linejoin:round;stroke-dasharray:none"
       id="path12072-3"
       cx="1.474059"
       cy="-12.80959"
       rx="0.68092644"
       ry="1.9973842"
       transform="rotate(113.43067)" />
    <ellipse
       style="fill:#ffd723;fill-opacity:1;stroke:#000000;stroke-width:0.352777;stroke-linecap:round;stroke-linejoin:round;stroke-dasharray:none"
       id="path12072-9"
       cx="9.8810291"
       cy="3.0333102"
       rx="0.68092644"
       ry="1.9973842"
       transform="rotate(27.578521)" />
    <ellipse
       style="fill:#ffd723;fill-opacity:1;stroke:#000000;stroke-width:0.352777;stroke-linecap:round;stroke-linejoin:round;stroke-dasharray:none"
       id="path12072-9-2"
       cx="8.4494076"
       cy="-1.8431042"
       rx="0.68092644"
       ry="1.9973842"
       transform="rotate(60.497036)" />
    <ellipse
       style="fill:#ffd723;fill-opacity:1;stroke:#000000;stroke-width:0.352777;stroke-linecap:round;stroke-linejoin:round;stroke-dasharray:none"
       id="path12072-9-3"
       cx="4.5476823"
       cy="-4.6853714"
       rx="0.68092644"
       ry="1.9973842"
       transform="rotate(94.518553)" />
    <ellipse
       style="fill:#ffd723;fill-opacity:1;stroke:#000000;stroke-width:0.352777;stroke-linecap:round;stroke-linejoin:round;stroke-dasharray:none"
       id="path12072-9-6"
       cx="-2.3452291"
       cy="-6.3418384"
       rx="0.68092644"
       ry="1.9973842"
       transform="rotate(143.23777)" />
    <ellipse
       style="fill:#ffd723;fill-opacity:1;stroke:#000000;stroke-width:0.352777;stroke-linecap:round;stroke-linejoin:round;stroke-dasharray:none"
       id="path12072-9-5"
       cx="5.8063111"
       cy="6.0204616"
       rx="0.68092644"
       ry="1.9973842"
       transform="rotate(-19.611372)" />
    <ellipse
       style="fill:#ffd723;fill-opacity:1;stroke:#000000;stroke-width:0.352777;stroke-linecap:round;stroke-linejoin:round;stroke-dasharray:none"
       id="path12072-1"
       cx="5.7610116"
       cy="10.176939"
       rx="0.68092644"
       ry="1.9973842"
       transform="rotate(-20.367639)" />
    <ellipse
       style="fill:#ffd723;fill-opacity:1;stroke:#000000;stroke-width:0.352777;stroke-linecap:round;stroke-linejoin:round;stroke-dasharray:none"
       id="path12072-7"
       cx="4.227675"
       cy="11.960956"
       rx="0.68092644"
       ry="1.9973842"
       transform="rotate(-34.853047)" />
    <ellipse
       style="fill:#ffd723;fill-opacity:1;stroke:#000000;stroke-width:0.296869;stroke-linecap:round;stroke-linejoin:round;stroke-dasharray:none"
       id="path12018"
       cx="9.2276783"
       cy="3.3671122"
       rx="3.1784167"
       ry="1.3016372"
       transform="matrix(0.9682579,0.24995326,-0.28072587,0.95978799,0,0)" />
  </g>
</svg>
