<?xml version="1.0" encoding="UTF-8" standalone="no"?>
<!-- Created with Inkscape (http://www.inkscape.org/) -->

<svg
   width="64"
   height="64"
   viewBox="0 0 16.933333 16.933333"
   version="1.1"
   id="svg5"
   inkscape:version="1.2.1 (9c6d41e, 2022-07-14)"
   sodipodi:docname="torch.svg"
   xmlns:inkscape="http://www.inkscape.org/namespaces/inkscape"
   xmlns:sodipodi="http://sodipodi.sourceforge.net/DTD/sodipodi-0.dtd"
   xmlns="http://www.w3.org/2000/svg"
   xmlns:svg="http://www.w3.org/2000/svg">
  <sodipodi:namedview
     id="namedview7"
     pagecolor="#ffffff"
     bordercolor="#000000"
     borderopacity="0.25"
     inkscape:showpageshadow="2"
     inkscape:pageopacity="0.0"
     inkscape:pagecheckerboard="0"
     inkscape:deskcolor="#d1d1d1"
     inkscape:document-units="mm"
     showgrid="false"
     inkscape:zoom="5.8284562"
     inkscape:cx="32.512897"
     inkscape:cy="38.775276"
     inkscape:window-width="1512"
     inkscape:window-height="840"
     inkscape:window-x="0"
     inkscape:window-y="38"
     inkscape:window-maximized="1"
     inkscape:current-layer="layer1" />
  <defs
     id="defs2" />
  <g
     inkscape:label="Layer 1"
     inkscape:groupmode="layer"
     id="layer1">
    <path
       style="fill:#794100;stroke:#000000;stroke-width:0.525593;stroke-linecap:round;stroke-linejoin:round;stroke-dasharray:none;fill-opacity:1"
       d="M 4.9009135,15.166349 6.6196528,7.3153326 4.6259152,7.1157305 4.9009135,5.8515835 12.669615,6.7830603 12.532116,7.9806729 10.125881,7.7810707 c 0,0 -0.2062487,2.5282933 -1.3062417,4.5243133 -1.0999931,1.996022 -3.9187258,2.860965 -3.9187258,2.860965 z"
       id="path236" />
    <path
       style="fill:#f1b74b;fill-opacity:1;stroke:#000000;stroke-width:0.504908;stroke-linecap:round;stroke-linejoin:round;stroke-dasharray:none"
       d="M 7.915289,5.6482405 C 6.5304391,3.5716061 7.6724839,1.5166047 7.6724839,1.5166047 L 8.5804548,3.5975089 9.6906041,1.7994967 9.9936025,3.4609296 11.472602,0.4115049 c 0,0 0.396624,3.2893335 0.248465,3.6889931 -0.148158,0.3996595 -1.453276,1.7833811 -1.453276,1.7833811 z"
       id="path839" />
  </g>
</svg>
