%YAML 1.1
%TAG !u! tag:unity3d.com,2011:
--- !u!74 &7400000
AnimationClip:
  m_ObjectHideFlags: 0
  m_CorrespondingSourceObject: {fileID: 0}
  m_PrefabInstance: {fileID: 0}
  m_PrefabAsset: {fileID: 0}
  m_Name: hearts
  serializedVersion: 6
  m_Legacy: 0
  m_Compressed: 0
  m_UseHighQualityCurve: 1
  m_RotationCurves: []
  m_CompressedRotationCurves: []
  m_EulerCurves: []
  m_PositionCurves: []
  m_ScaleCurves: []
  m_FloatCurves: []
  m_PPtrCurves:
  - curve:
    - time: 0
      value: {fileID: 21300000, guid: e85bf2064f2fe471fac95c9ee4c5b793, type: 3}
    - time: 0.2
      value: {fileID: 21300000, guid: df0ad906074524971a36f54420d61d8e, type: 3}
    - time: 0.4
      value: {fileID: 21300000, guid: 7753a21f0c97849be9a75f2c3f5e4849, type: 3}
    - time: 0.6
      value: {fileID: 21300000, guid: c533fa32ab48a47a1a1c84b6b8d08533, type: 3}
    - time: 0.8
      value: {fileID: 21300000, guid: 7f70159d46eaf408fa0ec39ed7b50509, type: 3}
    - time: 1
      value: {fileID: 21300000, guid: 8df8b35aba3b0452ba81f20014e58957, type: 3}
    - time: 1.2
      value: {fileID: 21300000, guid: 4cd4c2b91dc4b434095f0311ea2fe247, type: 3}
    - time: 1.4
      value: {fileID: 21300000, guid: c3724e1e023bf430eb64604aaa8685c1, type: 3}
    - time: 1.6
      value: {fileID: 21300000, guid: 022eeeb7b032844399b3510df4d207d3, type: 3}
    - time: 1.8
      value: {fileID: 21300000, guid: 46809b79129ce43578abbff015548d9a, type: 3}
    - time: 2
      value: {fileID: 21300000, guid: bba21bd0860ab4e578ca8d904c00de91, type: 3}
    - time: 2.2
      value: {fileID: 21300000, guid: f50f88acf862f4d56a12340bdecbc2be, type: 3}
    - time: 2.4
      value: {fileID: 21300000, guid: e85bf2064f2fe471fac95c9ee4c5b793, type: 3}
    - time: 2.6
      value: {fileID: 21300000, guid: df0ad906074524971a36f54420d61d8e, type: 3}
    - time: 2.8
      value: {fileID: 21300000, guid: 7753a21f0c97849be9a75f2c3f5e4849, type: 3}
    - time: 3
      value: {fileID: 21300000, guid: c533fa32ab48a47a1a1c84b6b8d08533, type: 3}
    - time: 3.2
      value: {fileID: 21300000, guid: 7f70159d46eaf408fa0ec39ed7b50509, type: 3}
    - time: 3.4
      value: {fileID: 21300000, guid: 8df8b35aba3b0452ba81f20014e58957, type: 3}
    - time: 3.6
      value: {fileID: 21300000, guid: 4cd4c2b91dc4b434095f0311ea2fe247, type: 3}
    - time: 3.8
      value: {fileID: 21300000, guid: c3724e1e023bf430eb64604aaa8685c1, type: 3}
    - time: 4
      value: {fileID: 21300000, guid: 022eeeb7b032844399b3510df4d207d3, type: 3}
    - time: 4.2
      value: {fileID: 21300000, guid: 46809b79129ce43578abbff015548d9a, type: 3}
    - time: 4.4
      value: {fileID: 21300000, guid: bba21bd0860ab4e578ca8d904c00de91, type: 3}
    - time: 4.6
      value: {fileID: 21300000, guid: f50f88acf862f4d56a12340bdecbc2be, type: 3}
    attribute: m_Sprite
    path: 
    classID: 212
    script: {fileID: 0}
  m_SampleRate: 5
  m_WrapMode: 0
  m_Bounds:
    m_Center: {x: 0, y: 0, z: 0}
    m_Extent: {x: 0, y: 0, z: 0}
  m_ClipBindingConstant:
    genericBindings:
    - serializedVersion: 2
      path: 0
      attribute: 0
      script: {fileID: 0}
      typeID: 212
      customType: 23
      isPPtrCurve: 1
    pptrCurveMapping:
    - {fileID: 21300000, guid: e85bf2064f2fe471fac95c9ee4c5b793, type: 3}
    - {fileID: 21300000, guid: df0ad906074524971a36f54420d61d8e, type: 3}
    - {fileID: 21300000, guid: 7753a21f0c97849be9a75f2c3f5e4849, type: 3}
    - {fileID: 21300000, guid: c533fa32ab48a47a1a1c84b6b8d08533, type: 3}
    - {fileID: 21300000, guid: 7f70159d46eaf408fa0ec39ed7b50509, type: 3}
    - {fileID: 21300000, guid: 8df8b35aba3b0452ba81f20014e58957, type: 3}
    - {fileID: 21300000, guid: 4cd4c2b91dc4b434095f0311ea2fe247, type: 3}
    - {fileID: 21300000, guid: c3724e1e023bf430eb64604aaa8685c1, type: 3}
    - {fileID: 21300000, guid: 022eeeb7b032844399b3510df4d207d3, type: 3}
    - {fileID: 21300000, guid: 46809b79129ce43578abbff015548d9a, type: 3}
    - {fileID: 21300000, guid: bba21bd0860ab4e578ca8d904c00de91, type: 3}
    - {fileID: 21300000, guid: f50f88acf862f4d56a12340bdecbc2be, type: 3}
    - {fileID: 21300000, guid: e85bf2064f2fe471fac95c9ee4c5b793, type: 3}
    - {fileID: 21300000, guid: df0ad906074524971a36f54420d61d8e, type: 3}
    - {fileID: 21300000, guid: 7753a21f0c97849be9a75f2c3f5e4849, type: 3}
    - {fileID: 21300000, guid: c533fa32ab48a47a1a1c84b6b8d08533, type: 3}
    - {fileID: 21300000, guid: 7f70159d46eaf408fa0ec39ed7b50509, type: 3}
    - {fileID: 21300000, guid: 8df8b35aba3b0452ba81f20014e58957, type: 3}
    - {fileID: 21300000, guid: 4cd4c2b91dc4b434095f0311ea2fe247, type: 3}
    - {fileID: 21300000, guid: c3724e1e023bf430eb64604aaa8685c1, type: 3}
    - {fileID: 21300000, guid: 022eeeb7b032844399b3510df4d207d3, type: 3}
    - {fileID: 21300000, guid: 46809b79129ce43578abbff015548d9a, type: 3}
    - {fileID: 21300000, guid: bba21bd0860ab4e578ca8d904c00de91, type: 3}
    - {fileID: 21300000, guid: f50f88acf862f4d56a12340bdecbc2be, type: 3}
  m_AnimationClipSettings:
    serializedVersion: 2
    m_AdditiveReferencePoseClip: {fileID: 0}
    m_AdditiveReferencePoseTime: 0
    m_StartTime: 0
    m_StopTime: 4.8
    m_OrientationOffsetY: 0
    m_Level: 0
    m_CycleOffset: 0
    m_HasAdditiveReferencePose: 0
    m_LoopTime: 0
    m_LoopBlend: 0
    m_LoopBlendOrientation: 0
    m_LoopBlendPositionY: 0
    m_LoopBlendPositionXZ: 0
    m_KeepOriginalOrientation: 0
    m_KeepOriginalPositionY: 1
    m_KeepOriginalPositionXZ: 0
    m_HeightFromFeet: 0
    m_Mirror: 0
  m_EditorCurves: []
  m_EulerEditorCurves: []
  m_HasGenericRootTransform: 0
  m_HasMotionFloatCurves: 0
  m_Events:
  - time: 4.8
    functionName: GoToWin
    data: 
    objectReferenceParameter: {fileID: 11500000, guid: e6cd84414a1344030917c63392356d7d,
      type: 3}
    floatParameter: 0
    intParameter: 0
    messageOptions: 0
